<?xml version="1.0" encoding="utf-8"?>
<!-- Generator: Adobe Illustrator 21.0.2, SVG Export Plug-In . SVG Version: 6.00 Build 0)  -->
<svg version="1.1" id="Layer_1" xmlns="http://www.w3.org/2000/svg" xmlns:xlink="http://www.w3.org/1999/xlink" x="0px" y="0px"
	 viewBox="0 0 1000 1000" style="enable-background:new 0 0 1000 1000;" xml:space="preserve">
<style type="text/css">
	.st0{fill:#FFFFFF;}
</style>
<g>
	<g>
		<path class="st0" d="M499.6,0C232,0,15.3,205.6,0.2,470.6H338V227h164c30.8,0,58.1,3.1,81,9.3c23.6,6.4,43.6,16,59.3,28.6
			c16,12.9,28.1,28.8,35.9,47.3c7.6,18.1,11.4,38.8,11.4,61.4c0,15.4-2.7,30.4-8.1,44.7c-5.3,14.2-13,27.4-23,39.4
			c-9.9,12-22.3,22.5-36.7,31.2c-1.7,1-3.3,2-5.1,2.9c22.8,8,41.9,19.2,56.9,33.7c24.7,23.9,37.3,55.5,37.3,93.9
			c0,24-4.4,46-13,65.4c-8.7,19.6-21.6,36.5-38.2,50.1c-16.4,13.4-36.6,23.8-60.2,30.8c-23.1,6.9-49.4,10.3-78.4,10.3H338V526.5H0
			C13.9,788.9,235,1000,499.6,1000c275.9,0,500.4-224.3,500.4-500S775.5,0,499.6,0z"/>
		<path class="st0" d="M614.5,552c-10.3-8-23.3-14.3-38.7-18.7c-15.8-4.5-34.2-6.8-54.7-6.8h-117v191.1h116.6
			c42,0,73.9-8.9,94.6-26.3c20.3-17.1,30.2-40.8,30.2-72.6c0-14.2-2.7-27.1-8-38.3C632.2,569.4,624.5,559.8,614.5,552z"/>
		<path class="st0" d="M559.7,462.3c15.2-5.5,27.7-12.7,37.2-21.4l0,0c9.3-8.6,16.3-18.4,20.6-29.1c4.5-11,6.7-22.5,6.7-34.1
			c0-30.9-9.2-53.4-28.1-68.7c-19.5-15.9-51.2-23.9-94-23.9h-97.9v185.6h98.6C525.1,470.7,544.2,467.9,559.7,462.3z"/>
	</g>
</g>
</svg>
